MATH214-Final-Project
…
Accidents_2017 <- Accidents_2017[,c(1:4, 16:20, 5:6, 21, 7:15)]

# Assigning the columns to their proper classes. 

for(i in 2:length(Accidents_2017)) {
    if(is.character(Accidents_2017[[i]])) {
        Accidents_2017[[i]] <- as.factor(Accidents_2017[[i]])
    } else if (is.numeric(Accidents_2017[[i]])) {
        Accidents_2017[[i]] <- as.numeric(Accidents_2017[[i]])
    }
}

Accidents_2017

## # A tibble: 2,203 x 21
##    Reference_Number Easting Northing Vehicles_Num  Year Month   Day  Hour Minute
##    <chr>              <dbl>    <dbl>        <dbl> <dbl> <dbl> <dbl> <dbl>  <dbl>
##  1 3AP0313           426340   428455            1  2017     3    17     8     15
##  2 3BE0850           430828   433222            2  2017     1    14    13     30
##  3 4110858           428940   429856            2  2017     1     1     8      5
##  4 4110858           428940   429856            2  2017     1     1     8      5
##  5 4111495           429899   434277            2  2017     1     1    17      5
##  6 4111706           435946   436807            2  2017     1     1    12      0
##  7 4120471           443658   436768            3  2017     1     2    12     30
##  8 4120471           443658   436768            3  2017     1     2    12     30
##  9 4121054           442103   434572            2  2017     1     2    18      7
## 10 4121054           442103   434572            2  2017     1     2    18      7
## # ... with 2,193 more rows, and 12 more variables: Accidents_Date <date>,
## #   Time <time>, Accidents_DateTime <dttm>, Casualty_Class <fct>,
## #   Severity <fct>, Gender <fct>, Age <dbl>, Lightning_Cond <fct>,
## #   Weather_Cond <fct>, Road_Class <fct>, Road_Surface <fct>,
## #   Vehicle_Type <fct>

# Checking NAs 

sum(rowSums(is.na(Accidents_2017)))

## [1] 0

# No NA values to explore

(Accidents_Hour <- Accidents_2017 %>% count(Hour))

## # A tibble: 24 x 2
##     Hour     n
##    <dbl> <int>
##  1     0    30
##  2     1    23
##  3     2     9
##  4     3    15
##  5     4    16
##  6     5    12
##  7     6    41
##  8     7    85
##  9     8   143
## 10     9   105
## # ... with 14 more rows

(DoW_Hour <- Accidents_2017 %>% 
  mutate(day_of_week = wday(Accidents_Date, label = TRUE))%>%
  count(day_of_week, Hour))

## # A tibble: 158 x 3
##    day_of_week  Hour     n
##    <ord>       <dbl> <int>
##  1 Sun             0    14
##  2 Sun             1     6
##  3 Sun             2     2
##  4 Sun             3     2
##  5 Sun             4     6
##  6 Sun             6     5
##  7 Sun             7     1
##  8 Sun             8     8
##  9 Sun             9     6
## 10 Sun            10     5
## # ... with 148 more rows
…
daily <- Accidents_2017 %>%
  group_by(Accidents_Date) %>%
  summarise(n = n()) %>%
  mutate(wday = wday(Accidents_Date, label = T, abbr = F))

daily

## # A tibble: 360 x 3
##    Accidents_Date     n wday     
##    <date>         <int> <ord>    
##  1 2017-01-01         4 Sunday   
##  2 2017-01-02         7 Monday   
##  3 2017-01-03         3 Tuesday  
##  4 2017-01-04         7 Wednesday
##  5 2017-01-05         4 Thursday 
##  6 2017-01-06         5 Friday   
##  7 2017-01-07         5 Saturday 
##  8 2017-01-09         5 Monday   
##  9 2017-01-10         9 Tuesday  
## 10 2017-01-11         7 Wednesday
## # ... with 350 more rows
…
